project_1.sim/sim_1/behav/xsim/tb_dds_only.vcd
$date
   Tue Jul 14 23:19:51 2026
$end

$version
  2025.2
  $dumpfile ("tb_dds_only.vcd") 
$end

$timescale
  1ps
$end

$scope module tb_dds_only $end
$var reg 1 ! aclk $end
$var reg 1 " aresetn $end
$var reg 4 # awaddr [3:0] $end
$var reg 1 $ awvalid $end
$var wire 1 % awready $end
$var reg 32 & wdata [31:0] $end
$var reg 4 ' wstrb [3:0] $end
$var reg 1 ( wvalid $end
$var wire 1 ) wready $end
$var wire 2 * bresp [1:0] $end
$var wire 1 + bvalid $end
$var reg 1 , bready $end
$var reg 4 - araddr [3:0] $end
$var reg 1 . arvalid $end
$var wire 1 / arready $end
$var wire 32 0 rdata [31:0] $end
$var wire 2 1 rresp [1:0] $end
$var wire 1 2 rvalid $end
$var reg 1 3 rready $end
$var wire 1 4 i2s_mclk $end
$var wire 1 5 i2s_bclk $end
$var wire 1 6 i2s_ws $end
$var wire 1 7 i2s_data $end
$var wire 32 8 bclk_acc [31:0] $end
$var wire 32 9 bclk_inc [31:0] $end
$var wire 1 : bclk_wrap $end
$scope module dut $end
$var wire 1 ; audio_clk $end
$var wire 1 4 i2s_mclk $end
$var wire 1 5 i2s_bclk $end
$var wire 1 6 i2s_ws $end
$var wire 1 7 i2s_data $end
$var wire 1 < s00_axi_aclk $end
$var wire 1 = s00_axi_aresetn $end
$var wire 4 > s00_axi_awaddr [3:0] $end
$var wire 3 ? s00_axi_awprot [2:0] $end
$var wire 1 @ s00_axi_awvalid $end
$var wire 1 % s00_axi_awready $end
$var wire 32 A s00_axi_wdata [31:0] $end
$var wire 4 B s00_axi_wstrb [3:0] $end
$var wire 1 C s00_axi_wvalid $end
$var wire 1 ) s00_axi_wready $end
$var wire 2 * s00_axi_bresp [1:0] $end
$var wire 1 + s00_axi_bvalid $end
$var wire 1 D s00_axi_bready $end
$var wire 4 E s00_axi_araddr [3:0] $end
$var wire 3 F s00_axi_arprot [2:0] $end
$var wire 1 G s00_axi_arvalid $end
$var wire 1 / s00_axi_arready $end
$var wire 32 0 s00_axi_rdata [31:0] $end
$var wire 2 1 s00_axi_rresp [1:0] $end
$var wire 1 2 s00_axi_rvalid $end
$var wire 1 H s00_axi_rready $end
$scope module i2s_slave_lite_v1_0_S00_AXI_inst $end
$var wire 1 4 i2s_mclk $end
$var wire 1 5 i2s_bclk $end
$var wire 1 6 i2s_ws $end
$var wire 1 7 i2s_data $end
$var wire 1 < S_AXI_ACLK $end
$var wire 1 = S_AXI_ARESETN $end
$var wire 4 > S_AXI_AWADDR [3:0] $end
$var wire 3 ? S_AXI_AWPROT [2:0] $end
$var wire 1 @ S_AXI_AWVALID $end
$var wire 1 % S_AXI_AWREADY $end
$var wire 32 A S_AXI_WDATA [31:0] $end
$var wire 4 B S_AXI_WSTRB [3:0] $end
$var wire 1 C S_AXI_WVALID $end
$var wire 1 ) S_AXI_WREADY $end
$var wire 2 * S_AXI_BRESP [1:0] $end
$var wire 1 + S_AXI_BVALID $end
$var wire 1 D S_AXI_BREADY $end
$var wire 4 E S_AXI_ARADDR [3:0] $end
$var wire 3 F S_AXI_ARPROT [2:0] $end
$var wire 1 G S_AXI_ARVALID $end
$var wire 1 / S_AXI_ARREADY $end
$var wire 32 0 S_AXI_RDATA [31:0] $end
$var wire 2 1 S_AXI_RRESP [1:0] $end
$var wire 1 2 S_AXI_RVALID $end
$var wire 1 H S_AXI_RREADY $end
$var reg 4 I axi_awaddr [3:0] $end
$var reg 1 J axi_awready $end
$var reg 1 K axi_wready $end
$var reg 2 L axi_bresp [1:0] $end
$var reg 1 M axi_bvalid $end
$var reg 1 N aw_en $end
$var reg 4 O axi_araddr [3:0] $end
$var reg 1 P axi_arready $end
$var reg 2 Q axi_rresp [1:0] $end
$var reg 1 R axi_rvalid $end
$var reg 32 S axi_rdata [31:0] $end
$var reg 32 T slv_reg0 [31:0] $end
$var reg 32 U slv_reg1 [31:0] $end
$var reg 32 V slv_reg2 [31:0] $end
$var reg 32 W slv_reg3 [31:0] $end
$var integer 32 X byte_index [31:0] $end
$var wire 1 Y slv_reg_wren $end
$var wire 1 Z slv_reg_rden $end
$var wire 2 [ write_addr [1:0] $end
$var wire 2 \ read_addr [1:0] $end
$var reg 32 ] reg_data_out [31:0] $end
$var wire 1 ^ enable_sync $end
$var wire 1 _ mute_sync $end
$var wire 5 ` sample_width_raw [4:0] $end
$var wire 6 a sample_width_sync [5:0] $end
$var wire 20 b sample_rate_raw [19:0] $end
$var wire 20 c sample_rate_nonzero [19:0] $end
$var wire 20 d sample_rate_sync [19:0] $end
$var wire 32 e bclk_toggle_rate_hz [31:0] $end
$var wire 32 f mclk_toggle_rate_hz [31:0] $end
$var wire 32 g bclk_phase_sum [31:0] $end
$var wire 32 h mclk_phase_sum [31:0] $end
$var wire 1 i bclk_phase_wrap $end
$var wire 1 j mclk_phase_wrap $end
$var reg 32 k bclk_phase_acc_q [31:0] $end
$var reg 32 l mclk_phase_acc_q [31:0] $end
$var reg 6 m bit_count_q [5:0] $end
$var reg 32 n sample_left_q [31:0] $end
$var reg 32 o sample_right_q [31:0] $end
$var reg 1 p mclk_q $end
$var reg 1 q bclk_q $end
$var reg 1 r ws_q $end
$var reg 1 s data_q $end
$var reg 1 t current_latch_status_q $end
$var wire 32 u sample_for_i2s_left [31:0] $end
$var wire 32 v sample_for_i2s_right [31:0] $end
$var wire 1 w _unused_ok $end
$scope function i2s_next_serial_bit $end
$var reg 1 x i2s_next_serial_bit $end
$var reg 32 y left_samp [31:0] $end
$var reg 32 z right_samp [31:0] $end
$var reg 6 { bc [5:0] $end
$var reg 6 | width [5:0] $end
$var reg 1 } in_left $end
$var reg 5 ~ pos [4:0] $end
$var reg 6 !! bit_idx [5:0] $end
$upscope $end
$upscope $end
$upscope $end
$upscope $end
$enddefinitions $end

#0
$dumpvars
0!
bx !!
0"
b0 #
0$
x%
b0 &
b0 '
0(
x)
bx *
x+
1,
b0 -
0.
x/
bx 0
bx 1
x2
13
04
05
06
07
b0 8
b0xxxxxxxxxxxxxxxxxxxx0000000 9
x:
0;
0<
0=
b0 >
b0 ?
0@
b0 A
b0 B
0C
1D
b0 E
b0 F
0G
1H
bx I
xJ
xK
bx L
xM
xN
bx O
xP
bx Q
xR
bx S
bx T
bx U
bx V
bx W
bx X
0Y
0Z
bx [
bx \
b0 ]
x^
x_
bx `
bx a
bx b
bx c
bx d
b0xxxxxxxxxxxxxxxxxxxx0000000 e
b0xxxxxxxxxxxxxxxxxxxx000000000 f
bx g
bx h
xi
xj
b0 k
b0 l
b0 m
b0 n
b0 o
0p
0q
0r
0s
0t
b0 u
b0 v
0w
xx
bx y
bx z
bx {
bx |
x}
bx ~
$end

#5000
1!
0%
0)
b0 *
0+
0/
b0 0
b0 1
02
b10111011100000000000000 9
0:
1;
1<
0J
0K
b0 L
0M
1N
b0 O
0P
b0 Q
0R
b0 S
b0 T
b0 U
b10111011100000000000000 V
b0 W
b0 \
0^
0_
b0 `
b100000 a
b1011101110000000 b
b1011101110000000 c
b1011101110000000 d
b10111011100000000000000 e
b1011101110000000000000000 f
b10111011100000000000000 g
b1011101110000000000000000 h
0i
0j

#10000
0!
0;
0<

#15000
1!
1;
1<

#20000
0!
0;
0<

#25000
1!
1;
1<

#30000
0!
0;
0<

#35000
1!
1;
1<

#40000
0!
0;
0<

#45000
1!
1;
1<

#50000
0!
0;
0<

#55000
1!
1;
1<

#60000
0!
0;
0<

#65000
1!
1;
1<

#70000
0!
0;
0<

#75000
1!
1;
1<

#80000
0!
0;
0<

#85000
1!
1;
1<

#90000
0!
0;
0<

#95000
1!
1;
1<

#100000
0!
1"
0;
0<
1=

#105000
1!
1;
1<

#110000
0!
0;
0<

#115000
1!
1;
1<

#120000
0!
0;
0<

#125000
1!
1;
1<

#130000
0!
0;
0<

#135000
1!
1;
1<

#140000
0!
0;
0<

#145000
1!
b10011100010000000000 9
1;
1<
b10011100010000000001 V
1^
b1001110001000 b
b1001110001000 c
b1001110001000 d
b10011100010000000000 e
b1001110001000000000000 f
b10011100010000000000 g
b1001110001000000000000 h

#150000
0!
0;
0<

#155000
1!
b10011100010000000000 8
1;
1<
b100111000100000000000 g
b10011100010000000000000 h
b10011100010000000000 k
b1001110001000000000000 l

#160000
0!
0;
0<

#165000
1!
b100111000100000000000 8
1;
1<
b111010100110000000000 g
b11101010011000000000000 h
b100111000100000000000 k
b10011100010000000000000 l

#170000
0!
0;
0<

#175000
1!
b111010100110000000000 8
1;
1<
b1001110001000000000000 g
b100111000100000000000000 h
b111010100110000000000 k
b11101010011000000000000 l

#180000
0!
0;
0<

#185000
1!
b1001110001000000000000 8
1;
1<
b1100001101010000000000 g
b110000110101000000000000 h
b1001110001000000000000 k
b100111000100000000000000 l

#190000
0!
0;
0<

#195000
1!
b1100001101010000000000 8
1;
1<
b1110101001100000000000 g
b111010100110000000000000 h
b1100001101010000000000 k
b110000110101000000000000 l

#200000
0!
0;
0<

#205000
1!
b1110101001100000000000 8
1;
1<
b10001000101110000000000 g
b1000100010111000000000000 h
b1110101001100000000000 k
b111010100110000000000000 l

#210000
0!
0;
0<

#215000
1!
b10001000101110000000000 8
1;
1<
b10011100010000000000000 g
b1001110001000000000000000 h
b10001000101110000000000 k
b1000100010111000000000000 l

#220000
0!
0;
0<

#225000
1!
b10011100010000000000000 8
1;
1<
b10101111110010000000000 g
b1010111111001000000000000 h
b10011100010000000000000 k
b1001110001000000000000000 l

#230000
0!
0;
0<

#235000
1!
b10101111110010000000000 8
1;
1<
b11000011010100000000000 g
b1100001101010000000000000 h
b10101111110010000000000 k
b1010111111001000000000000 l

#240000
0!
0;
0<

#245000
1!
b11000011010100000000000 8
1;
1<
b11010110110110000000000 g
b1101011011011000000000000 h
b11000011010100000000000 k
b1100001101010000000000000 l

#250000
0!
0;
0<

#255000
1!
b11010110110110000000000 8
1;
1<
b11101010011000000000000 g
b1110101001100000000000000 h
b11010110110110000000000 k
b1101011011011000000000000 l

#260000
0!
0;
0<

#265000
1!
b11101010011000000000000 8
1;
1<
b11111101111010000000000 g
b1111110111101000000000000 h
b11101010011000000000000 k
b1110101001100000000000000 l

#270000
0!
0;
0<

#275000
1!
b11111101111010000000000 8
1;
1<
b100010001011100000000000 g
b10001000101110000000000000 h
b11111101111010000000000 k
b1111110111101000000000000 l

#280000
0!
0;
0<

#285000
1!
b100010001011100000000000 8
1;
1<
b100100100111110000000000 g
b10010010011111000000000000 h
b100010001011100000000000 k
b10001000101110000000000000 l

#290000
0!
0;
0<

#295000
1!
b100100100111110000000000 8
1;
1<
b100111000100000000000000 g
b10011100010000000000000000 h
b100100100111110000000000 k
b10010010011111000000000000 l

#300000
0!
0;
0<

#305000
1!
b100111000100000000000000 8
1;
1<
b101001100000010000000000 g
b10100110000001000000000000 h
b100111000100000000000000 k
b10011100010000000000000000 l

#310000
0!
0;
0<

#315000
1!
b101001100000010000000000 8
1;
1<
b101011111100100000000000 g
b10101111110010000000000000 h
b101001100000010000000000 k
b10100110000001000000000000 l

#320000
0!
0;
0<

#325000
1!
b101011111100100000000000 8
1;
1<
b101110011000110000000000 g
b10111001100011000000000000 h
b101011111100100000000000 k
b10101111110010000000000000 l

#330000
0!
0;
0<

#335000
1!
b101110011000110000000000 8
1;
1<
b110000110101000000000000 g
b11000011010100000000000000 h
b101110011000110000000000 k
b10111001100011000000000000 l

#340000
0!
0;
0<

#345000
1!
b110000110101000000000000 8
1;
1<
b110011010001010000000000 g
b11001101000101000000000000 h
b110000110101000000000000 k
b11000011010100000000000000 l

#350000
0!
0;
0<

#355000
1!
b110011010001010000000000 8
1;
1<
b110101101101100000000000 g
b11010110110110000000000000 h
b110011010001010000000000 k
b11001101000101000000000000 l

#360000
0!
0;
0<

#365000
1!
b110101101101100000000000 8
1;
1<
b111000001001110000000000 g
b11100000100111000000000000 h
b110101101101100000000000 k
b11010110110110000000000000 l

#370000
0!
0;
0<

#375000
1!
b111000001001110000000000 8
1;
1<
b111010100110000000000000 g
b11101010011000000000000000 h
b111000001001110000000000 k
b11100000100111000000000000 l

#380000
0!
0;
0<

#385000
1!
b111010100110000000000000 8
1;
1<
b111101000010010000000000 g
b11110100001001000000000000 h
b111010100110000000000000 k
b11101010011000000000000000 l

#390000
0!
0;
0<

#395000
1!
b111101000010010000000000 8
1;
1<
b111111011110100000000000 g
b11111101111010000000000000 h
b111101000010010000000000 k
b11110100001001000000000000 l

#400000
0!
0;
0<

#405000
1!
b111111011110100000000000 8
1;
1<
b1000001111010110000000000 g
b100000111101011000000000000 h
b111111011110100000000000 k
b11111101111010000000000000 l

#410000
0!
0;
0<

#415000
1!
b1000001111010110000000000 8
1;
1<
b1000100010111000000000000 g
b100010001011100000000000000 h
b1000001111010110000000000 k
b100000111101011000000000000 l

#420000
0!
0;
0<

#425000
1!
b1000100010111000000000000 8
1;
1<
b1000110110011010000000000 g
b100011011001101000000000000 h
b1000100010111000000000000 k
b100010001011100000000000000 l

#430000
0!
0;
0<

#435000
1!
b1000110110011010000000000 8
1;
1<
b1001001001111100000000000 g
b100100100111110000000000000 h
b1000110110011010000000000 k
b100011011001101000000000000 l

#440000
0!
0;
0<

#445000
1!
b1001001001111100000000000 8
1;
1<
b1001011101011110000000000 g
b100101110101111000000000000 h
b1001001001111100000000000 k
b100100100111110000000000000 l

#450000
0!
0;
0<

#455000
1!
b1001011101011110000000000 8
1;
1<
b1001110001000000000000000 g
b100111000100000000000000000 h
b1001011101011110000000000 k
b100101110101111000000000000 l

#460000
0!
0;
0<

#465000
1!
b1001110001000000000000000 8
1;
1<
b1010000100100010000000000 g
b101000010010001000000000000 h
b1001110001000000000000000 k
b100111000100000000000000000 l

#470000
0!
0;
0<

#475000
1!
b1010000100100010000000000 8
1;
1<
b1010011000000100000000000 g
b101001100000010000000000000 h
b1010000100100010000000000 k
b101000010010001000000000000 l

#480000
0!
0;
0<

#485000
1!
b1010011000000100000000000 8
1;
1<
b1010101011100110000000000 g
b101010101110011000000000000 h
b1010011000000100000000000 k
b101001100000010000000000000 l

#490000
0!
0;
0<

#495000
1!
b1010101011100110000000000 8
1;
1<
b1010111111001000000000000 g
b101011111100100000000000000 h
b1010101011100110000000000 k
b101010101110011000000000000 l

#500000
0!
0;
0<

#505000
1!
b1010111111001000000000000 8
1;
1<
b1011010010101010000000000 g
b101101001010101000000000000 h
b1010111111001000000000000 k
b101011111100100000000000000 l

#510000
0!
0;
0<

#515000
1!
b1011010010101010000000000 8
1;
1<
b1011100110001100000000000 g
b101110011000110000000000000 h
b1011010010101010000000000 k
b101101001010101000000000000 l

#520000
0!
0;
0<

#525000
1!
b1011100110001100000000000 8
1;
1<
b1011111001101110000000000 g
b101111100110111000000000000 h
b1011100110001100000000000 k
b101110011000110000000000000 l

#530000
0!
0;
0<

#535000
1!
b1011111001101110000000000 8
1;
1<
b1100001101010000000000000 g
b110000110101000000000000000 h
1j
b1011111001101110000000000 k
b101111100110111000000000000 l

#540000
0!
0;
0<

#545000
1!
14
b1100001101010000000000000 8
1;
1<
b1100100000110010000000000 g
b10010111010111100000000 h
0j
b1100001101010000000000000 k
b1001001001111100000000 l
1p

#550000
0!
0;
0<

#555000
1!
b1100100000110010000000000 8
1;
1<
b1100110100010100000000000 g
b11100101011111100000000 h
b1100100000110010000000000 k
b10010111010111100000000 l

#560000
0!
0;
0<

#565000
1!
b1100110100010100000000000 8
1;
1<
b1101000111110110000000000 g
b100110011100111100000000 h
b1100110100010100000000000 k
b11100101011111100000000 l

#570000
0!
0;
0<

#575000
1!
b1101000111110110000000000 8
1;
1<
b1101011011011000000000000 g
b110000001101111100000000 h
b1101000111110110000000000 k
b100110011100111100000000 l

#580000
0!
0;
0<

#585000
1!
b1101011011011000000000000 8
1;
1<
b1101101110111010000000000 g
b111001111110111100000000 h
b1101011011011000000000000 k
b110000001101111100000000 l

#590000
0!
0;
0<

#595000
1!
b1101101110111010000000000 8
1;
1<
b1110000010011100000000000 g
b1000011101111111100000000 h
b1101101110111010000000000 k
b111001111110111100000000 l

#600000
0!
0;
0<

#605000
1!
b1110000010011100000000000 8
1;
1<
b1110010101111110000000000 g
b1001101100000111100000000 h
b1110000010011100000000000 k
b1000011101111111100000000 l

#610000
0!
0;
0<

#615000
1!
b1110010101111110000000000 8
1;
1<
b1110101001100000000000000 g
b1010111010001111100000000 h
b1110010101111110000000000 k
b1001101100000111100000000 l

#620000
0!
0;
0<

#625000
1!
b1110101001100000000000000 8
1;
1<
b1110111101000010000000000 g
b1100001000010111100000000 h
b1110101001100000000000000 k
b1010111010001111100000000 l

#630000
0!
0;
0<

#635000
1!
b1110111101000010000000000 8
1;
1<
b1111010000100100000000000 g
b1101010110011111100000000 h
b1110111101000010000000000 k
b1100001000010111100000000 l

#640000
0!
0;
0<

#645000
1!
b1111010000100100000000000 8
1;
1<
b1111100100000110000000000 g
b1110100100100111100000000 h
b1111010000100100000000000 k
b1101010110011111100000000 l

#650000
0!
0;
0<

#655000
1!
b1111100100000110000000000 8
1;
1<
b1111110111101000000000000 g
b1111110010101111100000000 h
b1111100100000110000000000 k
b1110100100100111100000000 l

#660000
0!
0;
0<

#665000
1!
b1111110111101000000000000 8
1;
1<
b10000001011001010000000000 g
b10001000000110111100000000 h
b1111110111101000000000000 k
b1111110010101111100000000 l

#670000
0!
0;
0<

#675000
1!
b10000001011001010000000000 8
1;
1<
b10000011110101100000000000 g
b10010001110111111100000000 h
b10000001011001010000000000 k
b10001000000110111100000000 l

#680000
0!
0;
0<

#685000
1!
b10000011110101100000000000 8
1;
1<
b10000110010001110000000000 g
b10011011101000111100000000 h
b10000011110101100000000000 k
b10010001110111111100000000 l

#690000
0!
0;
0<

#695000
1!
b10000110010001110000000000 8
1;
1<
b10001000101110000000000000 g
b10100101011001111100000000 h
b10000110010001110000000000 k
b10011011101000111100000000 l

#700000
0!
0;
0<

#705000
1!
b10001000101110000000000000 8
1;
1<
b10001011001010010000000000 g
b10101111001010111100000000 h
b10001000101110000000000000 k
b10100101011001111100000000 l

#710000
0!
0;
0<

#715000
1!
b10001011001010010000000000 8
1;
1<
b10001101100110100000000000 g
b10111000111011111100000000 h
b10001011001010010000000000 k
b10101111001010111100000000 l

#720000
0!
0;
0<

#725000
1!
b10001101100110100000000000 8
1;
1<
b10010000000010110000000000 g
b11000010101100111100000000 h
b10001101100110100000000000 k
b10111000111011111100000000 l

#730000
0!
0;
0<

#735000
1!
b10010000000010110000000000 8
1;
1<
b10010010011111000000000000 g
b11001100011101111100000000 h
b10010000000010110000000000 k
b11000010101100111100000000 l

#740000
0!
0;
0<

#745000
1!
b10010010011111000000000000 8
1;
1<
b10010100111011010000000000 g
b11010110001110111100000000 h
b10010010011111000000000000 k
b11001100011101111100000000 l

#750000
0!
0;
0<

#755000
1!
b10010100111011010000000000 8
1;
1<
b10010111010111100000000000 g
b11011111111111111100000000 h
b10010100111011010000000000 k
b11010110001110111100000000 l

#760000
0!
0;
0<

#765000
1!
b10010111010111100000000000 8
1;
1<
b10011001110011110000000000 g
b11101001110000111100000000 h
b10010111010111100000000000 k
b11011111111111111100000000 l

#770000
0!
0;
0<

#775000
1!
b10011001110011110000000000 8
1;
1<
b10011100010000000000000000 g
b11110011100001111100000000 h
b10011001110011110000000000 k
b11101001110000111100000000 l

#780000
0!
0;
0<

#785000
1!
b10011100010000000000000000 8
1;
1<
b10011110101100010000000000 g
b11111101010010111100000000 h
b10011100010000000000000000 k
b11110011100001111100000000 l

#790000
0!
0;
0<

#795000
1!
b10011110101100010000000000 8
1;
1<
b10100001001000100000000000 g
b100000111000011111100000000 h
b10011110101100010000000000 k
b11111101010010111100000000 l

#800000
0!
0;
0<

#805000
1!
b10100001001000100000000000 8
1;
1<
b10100011100100110000000000 g
b100010000110100111100000000 h
b10100001001000100000000000 k
b100000111000011111100000000 l

#810000
0!
0;
0<

#815000
1!
b10100011100100110000000000 8
1;
1<
b10100110000001000000000000 g
b100011010100101111100000000 h
b10100011100100110000000000 k
b100010000110100111100000000 l

#820000
0!
0;
0<

#825000
1!
b10100110000001000000000000 8
1;
1<
b10101000011101010000000000 g
b100100100010110111100000000 h
b10100110000001000000000000 k
b100011010100101111100000000 l

#830000
0!
0;
0<

#835000
1!
b10101000011101010000000000 8
1;
1<
b10101010111001100000000000 g
b100101110000111111100000000 h
b10101000011101010000000000 k
b100100100010110111100000000 l

#840000
0!
0;
0<

#845000
1!
b10101010111001100000000000 8
1;
1<
b10101101010101110000000000 g
b100110111111000111100000000 h
b10101010111001100000000000 k
b100101110000111111100000000 l

#850000
0!
0;
0<

#855000
1!
b10101101010101110000000000 8
1;
1<
b10101111110010000000000000 g
b101000001101001111100000000 h
b10101101010101110000000000 k
b100110111111000111100000000 l

#860000
0!
0;
0<

#865000
1!
b10101111110010000000000000 8
1;
1<
b10110010001110010000000000 g
b101001011011010111100000000 h
b10101111110010000000000000 k
b101000001101001111100000000 l

#870000
0!
0;
0<

#875000
1!
b10110010001110010000000000 8
1;
1<
b10110100101010100000000000 g
b101010101001011111100000000 h
b10110010001110010000000000 k
b101001011011010111100000000 l

#880000
0!
0;
0<

#885000
1!
b10110100101010100000000000 8
1;
1<
b10110111000110110000000000 g
b101011110111100111100000000 h
b10110100101010100000000000 k
b101010101001011111100000000 l

#890000
0!
0;
0<

#895000
1!
b10110111000110110000000000 8
1;
1<
b10111001100011000000000000 g
b101101000101101111100000000 h
b10110111000110110000000000 k
b101011110111100111100000000 l

#900000
0!
0;
0<

#905000
1!
b10111001100011000000000000 8
1;
1<
b10111011111111010000000000 g
b101110010011110111100000000 h
b10111001100011000000000000 k
b101101000101101111100000000 l

#910000
0!
0;
0<

#915000
1!
b10111011111111010000000000 8
1;
1<
b10111110011011100000000000 g
b101111100001111111100000000 h
b10111011111111010000000000 k
b101110010011110111100000000 l

#920000
0!
0;
0<

#925000
1!
b10111110011011100000000000 8
1;
1<
b11000000110111110000000000 g
b110000110000000111100000000 h
1j
b10111110011011100000000000 k
b101111100001111111100000000 l

#930000
0!
0;
0<

#935000
1!
04
b11000000110111110000000000 8
1;
1<
b11000011010100000000000000 g
b10010010011111000000000 h
0j
b11000000110111110000000000 k
b1000100010111000000000 l
0p

#940000
0!
0;
0<

#945000
1!
b11000011010100000000000000 8
1;
1<
b11000101110000010000000000 g
b11100000100111000000000 h
b11000011010100000000000000 k
b10010010011111000000000 l

#950000
0!
0;
0<

#955000
1!
b11000101110000010000000000 8
1;
1<
b11001000001100100000000000 g
b100101110101111000000000 h
b11000101110000010000000000 k
b11100000100111000000000 l

#960000
0!
0;
0<

#965000
1!
b11001000001100100000000000 8
1;
1<
b11001010101000110000000000 g
b101111100110111000000000 h
b11001000001100100000000000 k
b100101110101111000000000 l

#970000
0!
0;
0<

#975000
1!
b11001010101000110000000000 8
1;
1<
b11001101000101000000000000 g
b111001010111111000000000 h
b11001010101000110000000000 k
b101111100110111000000000 l

#980000
0!
0;
0<

#985000
1!
b11001101000101000000000000 8
1;
1<
b11001111100001010000000000 g
b1000011001000111000000000 h
b11001101000101000000000000 k
b111001010111111000000000 l

#990000
0!
0;
0<

#995000
1!
b11001111100001010000000000 8
1;
1<
b11010001111101100000000000 g
b1001100111001111000000000 h
b11001111100001010000000000 k
b1000011001000111000000000 l
