project_1.sim/sim_1/behav/xsim/tb_i2s_axi_lite.vcd
$date
   Thu Jul 16 09:16:48 2026
$end

$version
  2025.2
  $dumpfile ("tb_i2s_axi_lite.vcd") 
$end

$timescale
  1ps
$end

$scope module tb_i2s_axi_lite $end
$var reg 1 ! aclk $end
$var reg 1 " aresetn $end
$var reg 4 # awaddr [3:0] $end
$var reg 3 $ awprot [2:0] $end
$var reg 1 % awvalid $end
$var wire 1 & awready $end
$var reg 32 ' wdata [31:0] $end
$var reg 4 ( wstrb [3:0] $end
$var reg 1 ) wvalid $end
$var wire 1 * wready $end
$var wire 2 + bresp [1:0] $end
$var wire 1 , bvalid $end
$var reg 1 - bready $end
$var reg 4 . araddr [3:0] $end
$var reg 3 / arprot [2:0] $end
$var reg 1 0 arvalid $end
$var wire 1 1 arready $end
$var wire 32 2 rdata [31:0] $end
$var wire 2 3 rresp [1:0] $end
$var wire 1 4 rvalid $end
$var reg 1 5 rready $end
$var wire 1 6 i2s_mclk $end
$var wire 1 7 i2s_bclk $end
$var wire 1 8 i2s_ws $end
$var wire 1 9 i2s_data $end
$var wire 1 : i2s_enabled $end
$var integer 32 ; errors [31:0] $end
$var integer 32 < i [31:0] $end
$var integer 32 = bclk_edges_since_ws [31:0] $end
$var reg 1 > ws_monitor_armed $end
$var reg 32 ? read_value [31:0] $end
$scope module dut $end
$var wire 1 @ audio_clk $end
$var wire 1 6 i2s_mclk $end
$var wire 1 7 i2s_bclk $end
$var wire 1 8 i2s_ws $end
$var wire 1 9 i2s_data $end
$var wire 1 A s00_axi_aclk $end
$var wire 1 B s00_axi_aresetn $end
$var wire 4 C s00_axi_awaddr [3:0] $end
$var wire 3 D s00_axi_awprot [2:0] $end
$var wire 1 E s00_axi_awvalid $end
$var wire 1 & s00_axi_awready $end
$var wire 32 F s00_axi_wdata [31:0] $end
$var wire 4 G s00_axi_wstrb [3:0] $end
$var wire 1 H s00_axi_wvalid $end
$var wire 1 * s00_axi_wready $end
$var wire 2 + s00_axi_bresp [1:0] $end
$var wire 1 , s00_axi_bvalid $end
$var wire 1 I s00_axi_bready $end
$var wire 4 J s00_axi_araddr [3:0] $end
$var wire 3 K s00_axi_arprot [2:0] $end
$var wire 1 L s00_axi_arvalid $end
$var wire 1 1 s00_axi_arready $end
$var wire 32 2 s00_axi_rdata [31:0] $end
$var wire 2 3 s00_axi_rresp [1:0] $end
$var wire 1 4 s00_axi_rvalid $end
$var wire 1 M s00_axi_rready $end
$scope module i2s_slave_lite_v1_0_S00_AXI_inst $end
$var wire 1 6 i2s_mclk $end
$var wire 1 7 i2s_bclk $end
$var wire 1 8 i2s_ws $end
$var wire 1 9 i2s_data $end
$var wire 1 A S_AXI_ACLK $end
$var wire 1 B S_AXI_ARESETN $end
$var wire 4 C S_AXI_AWADDR [3:0] $end
$var wire 3 D S_AXI_AWPROT [2:0] $end
$var wire 1 E S_AXI_AWVALID $end
$var wire 1 & S_AXI_AWREADY $end
$var wire 32 F S_AXI_WDATA [31:0] $end
$var wire 4 G S_AXI_WSTRB [3:0] $end
$var wire 1 H S_AXI_WVALID $end
$var wire 1 * S_AXI_WREADY $end
$var wire 2 + S_AXI_BRESP [1:0] $end
$var wire 1 , S_AXI_BVALID $end
$var wire 1 I S_AXI_BREADY $end
$var wire 4 J S_AXI_ARADDR [3:0] $end
$var wire 3 K S_AXI_ARPROT [2:0] $end
$var wire 1 L S_AXI_ARVALID $end
$var wire 1 1 S_AXI_ARREADY $end
$var wire 32 2 S_AXI_RDATA [31:0] $end
$var wire 2 3 S_AXI_RRESP [1:0] $end
$var wire 1 4 S_AXI_RVALID $end
$var wire 1 M S_AXI_RREADY $end
$var reg 4 N axi_awaddr [3:0] $end
$var reg 1 O axi_awready $end
$var reg 1 P axi_wready $end
$var reg 2 Q axi_bresp [1:0] $end
$var reg 1 R axi_bvalid $end
$var reg 1 S aw_en $end
$var reg 4 T axi_araddr [3:0] $end
$var reg 1 U axi_arready $end
$var reg 2 V axi_rresp [1:0] $end
$var reg 1 W axi_rvalid $end
$var reg 32 X axi_rdata [31:0] $end
$var reg 32 Y slv_reg0 [31:0] $end
$var reg 32 Z slv_reg1 [31:0] $end
$var reg 32 [ slv_reg2 [31:0] $end
$var reg 32 \ slv_reg3 [31:0] $end
$var integer 32 ] byte_index [31:0] $end
$var wire 1 ^ slv_reg_wren $end
$var wire 1 _ slv_reg_rden $end
$var wire 2 ` write_addr [1:0] $end
$var wire 2 a read_addr [1:0] $end
$var reg 32 b reg_data_out [31:0] $end
$var wire 1 c enable_sync $end
$var wire 1 d mute_sync $end
$var wire 5 e sample_width_raw [4:0] $end
$var wire 6 f sample_width_sync [5:0] $end
$var wire 20 g sample_rate_raw [19:0] $end
$var wire 20 h sample_rate_nonzero [19:0] $end
$var wire 20 i sample_rate_sync [19:0] $end
$var wire 32 j bclk_toggle_rate_hz [31:0] $end
$var wire 32 k mclk_toggle_rate_hz [31:0] $end
$var wire 32 l bclk_phase_sum [31:0] $end
$var wire 32 m mclk_phase_sum [31:0] $end
$var wire 1 n bclk_phase_wrap $end
$var wire 1 o mclk_phase_wrap $end
$var reg 32 p bclk_phase_acc_q [31:0] $end
$var reg 32 q mclk_phase_acc_q [31:0] $end
$var reg 6 r bit_count_q [5:0] $end
$var reg 32 s sample_left_q [31:0] $end
$var reg 32 t sample_right_q [31:0] $end
$var reg 1 u mclk_q $end
$var reg 1 v bclk_q $end
$var reg 1 w ws_q $end
$var reg 1 x data_q $end
$var reg 1 y current_latch_status_q $end
$var wire 32 z sample_for_i2s_left [31:0] $end
$var wire 32 { sample_for_i2s_right [31:0] $end
$var wire 1 | _unused_ok $end
$scope function i2s_next_serial_bit $end
$var reg 1 } i2s_next_serial_bit $end
$var reg 32 ~ left_samp [31:0] $end
$var reg 32 !! right_samp [31:0] $end
$var reg 6 "! bc [5:0] $end
$var reg 6 #! width [5:0] $end
$var reg 1 $! in_left $end
$var reg 5 %! pos [4:0] $end
$var reg 6 &! bit_idx [5:0] $end
$upscope $end
$upscope $end
$upscope $end
$scope task axi_write $end
$var reg 4 '! address [3:0] $end
$var reg 32 (! value [31:0] $end
$upscope $end
$scope task axi_read $end
$var reg 4 )! address [3:0] $end
$var reg 32 *! value [31:0] $end
$upscope $end
$scope task check_channel $end
$var reg 1 +! expected_ws $end
$var reg 24 ,! expected_sample [23:0] $end
$upscope $end
$scope task check_sample_rate $end
$var reg 20 -! target_hz [19:0] $end
$var reg 32 .! control_value [31:0] $end
$var real 32 /! start_time_ns $end
$var real 32 0! end_time_ns $end
$var real 32 1! measured_hz $end
$var real 32 2! error_percent $end
$var integer 32 3! frame [31:0] $end
$upscope $end
$upscope $end
$enddefinitions $end

#0
$dumpvars
0!
bx !!
0"
bx "!
b0 #
bx #!
b0 $
x$!
0%
bx %!
x&
bx &!
b0 '
bx '!
b1111 (
bx (!
0)
bx )!
x*
bx *!
bx +
x+!
x,
bx ,!
1-
bx -!
b0 .
bx .!
b0 /
r0 /!
00
r0 0!
x1
r0 1!
bx 2
r0 2!
bx 3
bx 3!
x4
15
06
07
08
09
x:
b0 ;
bx <
b0 =
0>
bx ?
0@
0A
0B
b0 C
b0 D
0E
b0 F
b1111 G
0H
1I
b0 J
b0 K
0L
1M
bx N
xO
xP
bx Q
xR
xS
bx T
xU
bx V
xW
bx X
bx Y
bx Z
bx [
bx \
bx ]
0^
0_
bx `
bx a
b0 b
xc
xd
bx e
bx f
bx g
bx h
bx i
b0xxxxxxxxxxxxxxxxxxxx0000000 j
b0xxxxxxxxxxxxxxxxxxxx000000000 k
bx l
bx m
xn
xo
b0 p
b0 q
b0 r
b0 s
b0 t
0u
0v
0w
0x
0y
b0 z
b0 {
0|
x}
bx ~
$end

#5000
1!
0&
0*
b0 +
0,
01
b0 2
b0 3
04
0:
1@
1A
0O
0P
b0 Q
0R
1S
b0 T
0U
b0 V
0W
b0 X
b0 Y
b0 Z
b10111011100000000000000 [
b0 \
b0 a
0c
0d
b0 e
b100000 f
b1011101110000000 g
b1011101110000000 h
b1011101110000000 i
b10111011100000000000000 j
b1011101110000000000000000 k
b10111011100000000000000 l
b1011101110000000000000000 m
0n
0o

#10000
0!
0@
0A

#15000
1!
1@
1A

#20000
0!
0@
0A

#25000
1!
1@
1A

#30000
0!
0@
0A

#35000
1!
1@
1A

#40000
0!
0@
0A

#45000
1!
1"
1@
1A
1B

#50000
0!
0@
0A

#55000
1!
1@
1A

#60000
0!
0@
0A

#65000
1!
1@
1A

#70000
0!
0@
0A

#75000
1!
b1000 )!
1@
1A

#80000
0!
b1000 .
10
0@
0A
b1000 J
1L

#85000
1!
11
1@
1A
b1000 T
1U
1_
b10 a
b10111011100000000000000 b

#90000
0!
0@
0A

#95000
1!
01
b10111011100000000000000 2
14
1@
1A
0U
1W
b10111011100000000000000 X
0_

#100000
0!
b10111011100000000000000 *!
00
0@
0A
0L

#105000
1!
b0 '!
b101001011100001100011110 (!
04
b10111011100000000000000 ?
1@
1A
0W

#110000
0!
1%
b101001011100001100011110 '
1)
0@
0A
1E
b101001011100001100011110 F
1H

#115000
1!
1&
1*
1@
1A
b0 N
1O
1P
0S
1^
b0 `

#120000
0!
0@
0A

#125000
1!
0&
0*
1,
1@
1A
0O
0P
1R
b101001011100001100011110 Y
b100 ]
0^

#130000
0!
0%
0)
0@
0A
0E
0H

#135000
1!
b100 '!
b10110100011110011100001 (!
0,
1@
1A
0R
1S

#140000
0!
b100 #
1%
b10110100011110011100001 '
1)
0@
0A
b100 C
1E
b10110100011110011100001 F
1H

#145000
1!
1&
1*
1@
1A
b100 N
1O
1P
0S
1^
b1 `

#150000
0!
0@
0A

#155000
1!
0&
0*
1,
1@
1A
0O
0P
1R
b10110100011110011100001 Z
b100 ]
0^

#160000
0!
0%
0)
0@
0A
0E
0H

#165000
1!
b0 )!
0,
1@
1A
0R
1S

#170000
0!
b0 .
10
0@
0A
b0 J
1L

#175000
1!
11
1@
1A
b0 T
1U
1_
b0 a
b101001011100001100011110 b

#180000
0!
0@
0A

#185000
1!
01
b101001011100001100011110 2
14
1@
1A
0U
1W
b101001011100001100011110 X
0_

#190000
0!
b101001011100001100011110 *!
00
0@
0A
0L

#195000
1!
b100 )!
04
b101001011100001100011110 ?
1@
1A
0W

#200000
0!
b100 .
10
0@
0A
b100 J
1L

#205000
1!
11
1@
1A
b100 T
1U
1_
b1 a
b10110100011110011100001 b

#210000
0!
0@
0A

#215000
1!
01
b10110100011110011100001 2
14
1@
1A
0U
1W
b10110100011110011100001 X
0_

#220000
0!
b10110100011110011100001 *!
00
0@
0A
0L

#225000
1!
b1000 '!
b101110111000000001100001 (!
04
b10110100011110011100001 ?
1@
1A
0W

#230000
0!
b1000 #
1%
b101110111000000001100001 '
1)
0@
0A
b1000 C
1E
b101110111000000001100001 F
1H

#235000
1!
1&
1*
1@
1A
b1000 N
1O
1P
0S
1^
b10 `

#240000
0!
0@
0A

#245000
1!
0&
0*
1,
1:
1@
1A
0O
0P
1R
b101110111000000001100001 [
b100 ]
0^
1c
b11000 e
b11000 f
b10111011100000000 g
b10111011100000000 h
b10111011100000000 i
b101110111000000000000000 j
b10111011100000000000000000 k
b101110111000000000000000 l
b10111011100000000000000000 m

#250000
0!
0%
0)
0@
0A
0E
0H

#255000
1!
b1000 )!
0,
1@
1A
0R
1S
b1011101110000000000000000 l
b101110111000000000000000000 m
b101110111000000000000000 p
b10111011100000000000000000 q

#260000
0!
b1000 .
10
0@
0A
b1000 J
1L

#265000
1!
11
1@
1A
b1000 T
1U
1_
b10 a
b101110111000000001100001 b
b10001100101000000000000000 l
b1000110010100000000000000000 m
1o
b1011101110000000000000000 p
b101110111000000000000000000 q

#270000
0!
0@
0A

#275000
1!
01
b101110111000000001100001 2
14
16
1@
1A
0U
1W
b101110111000000001100001 X
0_
b10111011100000000000000000 l
b101110000100001111100000000 m
0o
b10001100101000000000000000 p
b10110101000001111100000000 q
1u

#280000
0!
b101110111000000001100001 *!
00
0@
0A
0L

#285000
1!
1+!
b10110100011110011100001 ,!
04
b101110111000000001100001 ?
1@
1A
0W
b11101010011000000000000000 l
b1000101100000001111100000000 m
1o
b10111011100000000000000000 p
b101110000100001111100000000 q

#290000
0!
0@
0A

#295000
1!
06
1@
1A
b100011001010000000000000000 l
b101101010000011111000000000 m
0o
b11101010011000000000000000 p
b10101110100011111000000000 q
0u

#300000
0!
0@
0A

#305000
1!
1@
1A
b101001000001000000000000000 l
b1000100101100011111000000000 m
1o
b100011001010000000000000000 p
b101101010000011111000000000 q

#310000
0!
0@
0A

#315000
1!
16
1@
1A
b101110111000000000000000000 l
b101100011100101110100000000 m
0o
b101001000001000000000000000 p
b10101000000101110100000000 q
1u

#320000
0!
0@
0A

#325000
1!
1@
1A
b110100101111000000000000000 l
b1000011111000101110100000000 m
1n
1o
b101110111000000000000000000 p
b101100011100101110100000000 q

#330000
0!
0@
0A

#335000
1!
06
17
b1 =
1@
1A
b1010111010001111100000000 l
b101011101000111110000000000 m
0n
0o
b101000011001111100000000 p
b10100001100111110000000000 q
b101001011100001100011110 s
b10110100011110011100001 t
0u
1v
1y
b101001011100001100011110 z
b10110100011110011100001 {

#340000
0!
0@
0A

#345000
1!
1@
1A
b10000110001001111100000000 l
b1000011000100111110000000000 m
1o
b1010111010001111100000000 p
b101011101000111110000000000 q

#350000
0!
0@
0A

#355000
1!
16
1@
1A
b10110101000001111100000000 l
b101010110101001101100000000 m
0o
b10000110001001111100000000 p
b10011011001001101100000000 q
1u

#360000
0!
0@
0A

#365000
1!
1@
1A
b11100011111001111100000000 l
b1000010010001001101100000000 m
1o
b10110101000001111100000000 p
b101010110101001101100000000 q

#370000
0!
0@
0A

#375000
1!
06
1@
1A
b100010010110001111100000000 l
b101010000001011101000000000 m
0o
b11100011111001111100000000 p
b10010100101011101000000000 q
0u

#380000
0!
0@
0A

#385000
1!
1@
1A
b101000001101001111100000000 l
b1000001011101011101000000000 m
1o
b100010010110001111100000000 p
b101010000001011101000000000 q

#390000
0!
0@
0A

#395000
1!
16
1@
1A
b101110000100001111100000000 l
b101001001101101100100000000 m
0o
b101000001101001111100000000 p
b10001110001101100100000000 q
1u

#400000
0!
0@
0A

#405000
1!
1@
1A
b110011111011001111100000000 l
b1000000101001101100100000000 m
1n
1o
b101110000100001111100000000 p
b101001001101101100100000000 q

#410000
0!
0@
0A

#415000
1!
b10110100011110011100001 !!
b0 "!
b11000 #!
1$!
b0 %!
06
07
1@
1A
b1010000110011111000000000 l
b101000011001111100000000000 m
0n
0o
b100001111011111000000000 p
b10000111101111100000000000 q
b1 r
0u
0v
0}
b101001011100001100011110 ~

#420000
0!
0@
0A

#425000
1!
1@
1A
b1111111101011111000000000 l
b111111110101111100000000000 m
1o
b1010000110011111000000000 p
b101000011001111100000000000 q

#430000
0!
0@
0A

#435000
1!
16
1@
1A
b10101110100011111000000000 l
b100111100110001011100000000 m
0o
b1111111101011111000000000 p
b10000001010001011100000000 q
1u

#440000
0!
0@
0A

#445000
1!
1@
1A
b11011101011011111000000000 l
b111111000010001011100000000 m
1o
b10101110100011111000000000 p
b100111100110001011100000000 q

#450000
0!
0@
0A

#455000
1!
06
1@
1A
b100001100010011111000000000 l
b100110110010011011000000000 m
0o
b11011101011011111000000000 p
b1111010110011011000000000 q
0u

#460000
0!
0@
0A

#465000
1!
1@
1A
b100111011001011111000000000 l
b111110001110011011000000000 m
1o
b100001100010011111000000000 p
b100110110010011011000000000 q

#470000
0!
0@
0A

#475000
1!
16
1@
1A
b101101010000011111000000000 l
b100101111110101010100000000 m
0o
b100111011001011111000000000 p
b1110100010101010100000000 q
1u

#480000
0!
0@
0A

#485000
1!
1@
1A
b110011000111011111000000000 l
b111101011010101010100000000 m
1n
1o
b101101010000011111000000000 p
b100101111110101010100000000 q

#490000
0!
0@
0A

#495000
1!
06
17
b10 =
1@
1A
b1001010010101110100000000 l
b100101001010111010000000000 m
0n
0o
b11011011101110100000000 p
b1101101110111010000000000 q
0u
1v

#500000
0!
0@
0A

#505000
1!
1@
1A
b1111001001101110100000000 l
b111100100110111010000000000 m
1o
b1001010010101110100000000 p
b100101001010111010000000000 q

#510000
0!
0@
0A

#515000
1!
16
1@
1A
b10101000000101110100000000 l
b100100010111001001100000000 m
0o
b1111001001101110100000000 p
b1100111011001001100000000 q
1u

#520000
0!
0@
0A

#525000
1!
1@
1A
b11010110111101110100000000 l
b111011110011001001100000000 m
1o
b10101000000101110100000000 p
b100100010111001001100000000 q

#530000
0!
0@
0A

#535000
1!
06
1@
1A
b100000101110101110100000000 l
b100011100011011001000000000 m
0o
b11010110111101110100000000 p
b1100000111011001000000000 q
0u

#540000
0!
0@
0A

#545000
1!
1@
1A
b100110100101101110100000000 l
b111010111111011001000000000 m
1o
b100000101110101110100000000 p
b100011100011011001000000000 q

#550000
0!
0@
0A

#555000
1!
16
1@
1A
b101100011100101110100000000 l
b100010101111101000100000000 m
0o
b100110100101101110100000000 p
b1011010011101000100000000 q
1u

#560000
0!
0@
0A

#565000
1!
1@
1A
b110010010011101110100000000 l
b111010001011101000100000000 m
1n
1o
b101100011100101110100000000 p
b100010101111101000100000000 q

#570000
0!
0@
0A

#575000
1!
b1 "!
b1 %!
b10111 &!
06
07
19
1@
1A
b1000011110111110000000000 l
b100001111011111000000000000 m
0n
0o
b10100111111110000000000 p
b1010011111111000000000000 q
b10 r
0u
0v
1x
1}

#580000
0!
0@
0A

#585000
1!
1@
1A
b1110010101111110000000000 l
b111001010111111000000000000 m
1o
b1000011110111110000000000 p
b100001111011111000000000000 q

#590000
0!
0@
0A

#595000
1!
16
1@
1A
b10100001100111110000000000 l
b100001001000000111100000000 m
0o
b1110010101111110000000000 p
b1001101100000111100000000 q
1u

#600000
0!
0@
0A

#605000
1!
1@
1A
b11010000011111110000000000 l
b111000100100000111100000000 m
1o
b10100001100111110000000000 p
b100001001000000111100000000 q

#610000
0!
0@
0A

#615000
1!
06
1@
1A
b11111111010111110000000000 l
b100000010100010111000000000 m
0o
b11010000011111110000000000 p
b1000111000010111000000000 q
0u

#620000
0!
0@
0A

#625000
1!
1@
1A
b100101110001111110000000000 l
b110111110000010111000000000 m
1o
b11111111010111110000000000 p
b100000010100010111000000000 q

#630000
0!
0@
0A

#635000
1!
16
1@
1A
b101011101000111110000000000 l
b11111100000100110100000000 m
0o
b100101110001111110000000000 p
b1000000100100110100000000 q
1u

#640000
0!
0@
0A

#645000
1!
1@
1A
b110001011111111110000000000 l
b110110111100100110100000000 m
1n
1o
b101011101000111110000000000 p
b11111100000100110100000000 q

#650000
0!
0@
0A

#655000
1!
06
17
b11 =
1@
1A
b111101011001101100000000 l
b11110101100110110000000000 m
0n
0o
b1110100001101100000000 p
b111010000110110000000000 q
0u
1v

#660000
0!
0@
0A

#665000
1!
1@
1A
b1101100010001101100000000 l
b110110001000110110000000000 m
1o
b111101011001101100000000 p
b11110101100110110000000000 q

#670000
0!
0@
0A

#675000
1!
16
1@
1A
b10011011001001101100000000 l
b11101111001000101100000000 m
0o
b1101100010001101100000000 p
b110011101000101100000000 q
1u

#680000
0!
0@
0A

#685000
1!
1@
1A
b11001010000001101100000000 l
b110101010101000101100000000 m
1o
b10011011001001101100000000 p
b11101111001000101100000000 q

#690000
0!
0@
0A

#695000
1!
06
1@
1A
b11111000111001101100000000 l
b11101000101010101000000000 m
0o
b11001010000001101100000000 p
b101101001010101000000000 q
0u

#700000
0!
0@
0A

#705000
1!
1@
1A
b100100111110001101100000000 l
b110100100001010101000000000 m
1o
b11111000111001101100000000 p
b11101000101010101000000000 q

#710000
0!
0@
0A

#715000
1!
16
1@
1A
b101010110101001101100000000 l
b11100010001100100100000000 m
0o
b100100111110001101100000000 p
b100110101100100100000000 q
1u

#720000
0!
0@
0A

#725000
1!
1@
1A
b110000101100001101100000000 l
b110011101101100100100000000 m
1n
1o
b101010110101001101100000000 p
b11100010001100100100000000 q

#730000
0!
0@
0A

#735000
1!
b10 "!
b10 %!
b10110 &!
06
07
09
1@
1A
b110110111011101000000000 l
b11011011101110100000000000 m
0n
0o
b1000000011101000000000 p
b100000001110100000000000 q
b11 r
0u
0v
0x
0}

#740000
0!
0@
0A

#745000
1!
1@
1A
b1100101110011101000000000 l
b110010111001110100000000000 m
1o
b110110111011101000000000 p
b11011011101110100000000000 q

#750000
0!
0@
0A

#755000
1!
16
1@
1A
b10010100101011101000000000 l
b11010101010000011100000000 m
0o
b1100101110011101000000000 p
b11001110000011100000000 q
1u

#760000
0!
0@
0A

#765000
1!
1@
1A
b11000011100011101000000000 l
b110010000110000011100000000 m
1o
b10010100101011101000000000 p
b11010101010000011100000000 q

#770000
0!
0@
0A

#775000
1!
06
1@
1A
b11110010011011101000000000 l
b11001110110010011000000000 m
0o
b11000011100011101000000000 p
b10011010010011000000000 q
0u

#780000
0!
0@
0A

#785000
1!
1@
1A
b100100001010011101000000000 l
b110001010010010011000000000 m
1o
b11110010011011101000000000 p
b11001110110010011000000000 q

#790000
0!
0@
0A

#795000
1!
16
1@
1A
b101010000001011101000000000 l
b11001000010100010100000000 m
0o
b100100001010011101000000000 p
b1100110100010100000000 q
1u

#800000
0!
0@
0A

#805000
1!
1@
1A
b101111111000011101000000000 l
b110000011110100010100000000 m
1n
1o
b101010000001011101000000000 p
b11001000010100010100000000 q

#810000
0!
0@
0A

#815000
1!
06
17
b100 =
1@
1A
b110000011101100100000000 l
b11000001110110010000000000 m
0n
0o
b1100101100100000000 p
b110010110010000000000 q
0u
1v

#820000
0!
0@
0A

#825000
1!
1@
1A
b1011111010101100100000000 l
b101111101010110010000000000 m
b110000011101100100000000 p
b11000001110110010000000000 q

#830000
0!
0@
0A

#835000
1!
1@
1A
b10001110001101100100000000 l
b1000111000110110010000000000 m
1o
b1011111010101100100000000 p
b101111101010110010000000000 q

#840000
0!
0@
0A

#845000
1!
16
1@
1A
b10111101000101100100000000 l
b101110110111000001100000000 m
0o
b10001110001101100100000000 p
b10111011011000001100000000 q
1u

#850000
0!
0@
0A

#855000
1!
1@
1A
b11101011111101100100000000 l
b1000110010011000001100000000 m
1o
b10111101000101100100000000 p
b101110110111000001100000000 q

#860000
0!
0@
0A

#865000
1!
06
1@
1A
b100011010110101100100000000 l
b101110000011010001000000000 m
0o
b11101011111101100100000000 p
b10110100111010001000000000 q
0u

#870000
0!
0@
0A

#875000
1!
1@
1A
b101001001101101100100000000 l
b1000101011111010001000000000 m
1o
b100011010110101100100000000 p
b101110000011010001000000000 q

#880000
0!
0@
0A

#885000
1!
16
1@
1A
b101111000100101100100000000 l
b101101001111100000100000000 m
0o
b101001001101101100100000000 p
b10101110011100000100000000 q
1u

#890000
0!
0@
0A

#895000
1!
1@
1A
b110100111011101100100000000 l
b1000100101011100000100000000 m
1n
1o
b101111000100101100100000000 p
b101101001111100000100000000 q

#900000
0!
0@
0A

#905000
1!
b11 "!
b11 %!
b10101 &!
06
07
19
1@
1A
b1011000110111100000000000 l
b101100011011110000000000000 m
0n
0o
b101001111111100000000000 p
b10100111111110000000000000 q
b100 r
0u
0v
1x
1}

#910000
0!
0@
0A

#915000
1!
1@
1A
b10000111101111100000000000 l
b1000011110111110000000000000 m
1o
b1011000110111100000000000 p
b101100011011110000000000000 q

#920000
0!
0@
0A

#925000
1!
16
1@
1A
b10110110100111100000000000 l
b101011100111111111100000000 m
0o
b10000111101111100000000000 p
b10100001011111111100000000 q
1u

#930000
0!
0@
0A

#935000
1!
1@
1A
b11100101011111100000000000 l
b1000011000011111111100000000 m
1o
b10110110100111100000000000 p
b101011100111111111100000000 q

#940000
0!
0@
0A

#945000
1!
06
1@
1A
b100010100010111100000000000 l
b101010110100001111000000000 m
0o
b11100101011111100000000000 p
b10011011000001111000000000 q
0u

#950000
0!
0@
0A

#955000
1!
1@
1A
b101000011001111100000000000 l
b1000010010000001111000000000 m
1o
b100010100010111100000000000 p
b101010110100001111000000000 q

#960000
0!
0@
0A

#965000
1!
16
1@
1A
b101110010000111100000000000 l
b101010000000011110100000000 m
0o
b101000011001111100000000000 p
b10010100100011110100000000 q
1u

#970000
0!
0@
0A

#975000
1!
1@
1A
b110100000111111100000000000 l
b1000001011100011110100000000 m
1n
1o
b101110010000111100000000000 p
b101010000000011110100000000 q

#980000
0!
0@
0A

#985000
1!
06
17
b101 =
1@
1A
b1010010011001011100000000 l
b101001001100101110000000000 m
0n
0o
b100011100001011100000000 p
b10001110000101110000000000 q
0u
1v

#990000
0!
0@
0A

#995000
1!
1@
1A
b10000001010001011100000000 l
b1000000101000101110000000000 m
1o
b1010010011001011100000000 p
b101001001100101110000000000 q
