tb/tb_axi_i2s.vcd
$date
	Tue Apr 21 13:43:06 2026
$end
$version
	Icarus Verilog
$end
$timescale
	1ps
$end
$scope module tb_axi_i2s $end
$var wire 1 ! i2s_mclk $end
$var wire 1 " i2s_ws $end
$var wire 1 # i2s_data $end
$var wire 1 $ i2s_bclk $end
$var wire 1 % S_AXI_WREADY $end
$var wire 1 & S_AXI_RVALID $end
$var wire 2 ' S_AXI_RRESP [1:0] $end
$var wire 32 ( S_AXI_RDATA [31:0] $end
$var wire 1 ) S_AXI_BVALID $end
$var wire 2 * S_AXI_BRESP [1:0] $end
$var wire 1 + S_AXI_AWREADY $end
$var wire 1 , S_AXI_ARREADY $end
$var parameter 32 - AUDIO_CLK_PERIOD $end
$var parameter 32 . AXI_CLK_PERIOD $end
$var parameter 32 / CTRL_FS_MODE $end
$var parameter 32 0 CTRL_MUTE $end
$var parameter 32 1 CTRL_PLAY $end
$var parameter 16 2 L0 $end
$var parameter 16 3 L1 $end
$var parameter 16 4 L2 $end
$var parameter 16 5 R0 $end
$var parameter 16 6 R1 $end
$var parameter 16 7 R2 $end
$var parameter 4 8 REG_CTRL $end
$var parameter 4 9 REG_DATA $end
$var parameter 4 : REG_ID $end
$var parameter 4 ; REG_STATUS $end
$var reg 1 < S_AXI_ACLK $end
$var reg 4 = S_AXI_ARADDR [3:0] $end
$var reg 1 > S_AXI_ARESETN $end
$var reg 3 ? S_AXI_ARPROT [2:0] $end
$var reg 1 @ S_AXI_ARVALID $end
$var reg 4 A S_AXI_AWADDR [3:0] $end
$var reg 3 B S_AXI_AWPROT [2:0] $end
$var reg 1 C S_AXI_AWVALID $end
$var reg 1 D S_AXI_BREADY $end
$var reg 1 E S_AXI_RREADY $end
$var reg 32 F S_AXI_WDATA [31:0] $end
$var reg 4 G S_AXI_WSTRB [3:0] $end
$var reg 1 H S_AXI_WVALID $end
$var reg 1 I audio_clk $end
$var reg 64 J cap_shift [63:0] $end
$var reg 1 K rcv_active $end
$var reg 16 L rcv_left [15:0] $end
$var reg 16 M rcv_right [15:0] $end
$var reg 32 N rdata [31:0] $end
$var reg 1 O ws_prev $end
$var reg 1 P ws_prev_cap $end
$var real 1 Q bclk_last_rise_ns $end
$var real 1 R bclk_period_48k_ref $end
$var real 1 S bclk_period_96k_ref $end
$var real 1 T bclk_period_measured_ns $end
$var integer 32 U bclk_period_valid [31:0] $end
$var integer 32 V cap_bit_cnt [31:0] $end
$var integer 32 W fail_count [31:0] $end
$var integer 32 X frame_captured [31:0] $end
$var integer 32 Y i [31:0] $end
$var integer 32 Z pass_count [31:0] $end
$var integer 32 [ rcv_bit_idx [31:0] $end
$var integer 32 \ ws_bclk_count [31:0] $end
$var integer 32 ] ws_period_bclk [31:0] $end
$scope module dut $end
$var wire 1 < S_AXI_ACLK $end
$var wire 4 ^ S_AXI_ARADDR [3:0] $end
$var wire 1 > S_AXI_ARESETN $end
$var wire 3 _ S_AXI_ARPROT [2:0] $end
$var wire 1 , S_AXI_ARREADY $end
$var wire 1 @ S_AXI_ARVALID $end
$var wire 4 ` S_AXI_AWADDR [3:0] $end
$var wire 3 a S_AXI_AWPROT [2:0] $end
$var wire 1 + S_AXI_AWREADY $end
$var wire 1 C S_AXI_AWVALID $end
$var wire 1 D S_AXI_BREADY $end
$var wire 2 b S_AXI_BRESP [1:0] $end
$var wire 1 ) S_AXI_BVALID $end
$var wire 32 c S_AXI_RDATA [31:0] $end
$var wire 1 E S_AXI_RREADY $end
$var wire 2 d S_AXI_RRESP [1:0] $end
$var wire 1 & S_AXI_RVALID $end
$var wire 32 e S_AXI_WDATA [31:0] $end
$var wire 1 % S_AXI_WREADY $end
$var wire 4 f S_AXI_WSTRB [3:0] $end
$var wire 1 H S_AXI_WVALID $end
$var wire 1 I audio_clk $end
$var wire 1 g aw_en $end
$var wire 1 h bclk_fall $end
$var wire 1 i bclk_rise $end
$var wire 1 $ i2s_bclk $end
$var wire 1 # i2s_data $end
$var wire 1 ! i2s_mclk $end
$var wire 1 " i2s_ws $end
$var wire 1 j w_en $end
$var wire 2 k wr_addr [1:0] $end
$var wire 5 l slot_pos [4:0] $end
$var wire 2 m rd_addr [1:0] $end
$var wire 1 n is_right $end
$var wire 3 o bclk_div [2:0] $end
$var parameter 32 p C_S_AXI_ADDR_WIDTH $end
$var parameter 32 q C_S_AXI_DATA_WIDTH $end
$var parameter 32 r ID_VALUE $end
$var reg 1 s axi_arready $end
$var reg 1 t axi_awready $end
$var reg 2 u axi_bresp [1:0] $end
$var reg 1 v axi_bvalid $end
$var reg 32 w axi_rdata [31:0] $end
$var reg 2 x axi_rresp [1:0] $end
$var reg 1 y axi_rvalid $end
$var reg 1 z axi_wready $end
$var reg 3 { bclk_cnt [2:0] $end
$var reg 1 | bclk_r $end
$var reg 6 } bit_cnt [5:0] $end
$var reg 3 ~ ctrl_meta [2:0] $end
$var reg 3 !" ctrl_sync_b [2:0] $end
$var reg 1 "" data_r $end
$var reg 32 #" sample_q [31:0] $end
$var reg 32 $" slv_reg0 [31:0] $end
$var reg 32 %" slv_reg1 [31:0] $end
$var reg 32 &" slv_reg2 [31:0] $end
$var reg 1 '" ws_r $end
$var integer 32 (" byte_index [31:0] $end
$upscope $end
$scope begin mute_check_block $end
$var integer 32 )" mute_bits [31:0] $end
$var integer 32 *" mute_ones [31:0] $end
$scope begin capture_fork $end
$var integer 32 +" j [31:0] $end
$upscope $end
$scope begin timeout_fork $end
$upscope $end
$upscope $end
$scope task axi_read $end
$var reg 4 ," addr [3:0] $end
$upscope $end
$scope task axi_write $end
$var reg 4 -" addr [3:0] $end
$var reg 32 ." data [31:0] $end
$upscope $end
$scope task check $end
$var reg 1 /" cond $end
$var reg 256 0" label [255:0] $end
$upscope $end
$upscope $end
$enddefinitions $end
$comment Show the parameter values. $end
$dumpall
b1001001001100100101001100000001 r
b100000 q
b100 p
b1000 ;
b1100 :
b0 9
b100 8
b1000000000000000 7
b1101111010101101 6
b101101001011010 5
b111111111111111 4
b1001000110100 3
b1010010110100101 2
b1 1
b10 0
b100 /
b1010 .
b101001 -
$end
#0
$dumpvars
bx 0"
x/"
bx ."
bx -"
bx ,"
bx +"
bx *"
bx )"
bx ("
x'"
bx &"
bx %"
bx $"
bx #"
x""
bx !"
bx ~
bx }
x|
bx {
xz
xy
bx x
bx w
xv
bx u
xt
xs
bx0 o
xn
b0 m
bx l
b0 k
0j
xi
xh
0g
b1111 f
b0 e
bx d
bx c
bx b
b0 a
b0 `
b0 _
b0 ^
b0 ]
b0 \
b0 [
b0 Z
bx Y
b0 X
b0 W
b0 V
b0 U
r0 T
r164 S
r328 R
r0 Q
1P
0O
bx N
b0 M
b0 L
0K
b0 J
0I
0H
b1111 G
b0 F
1E
1D
0C
b0 B
b0 A
0@
b0 ?
0>
b0 =
0<
x,
x+
bx *
x)
bx (
bx '
x&
x%
x$
x#
x"
0!
$end
#5000
0+
0t
0%
0z
b0 *
b0 b
b0 u
0)
0v
b0 %"
b0 $"
0,
0s
b0 '
b0 d
b0 x
0&
0y
b0 (
b0 c
b0 w
b0 &"
1<
#10000
0<
#15000
1<
#20000
0h
b0 l
0n
b0 ~
0$
0|
b0 {
b0 }
b0 #"
0"
0'"
0#
0""
0<
1I
#25000
1<
#30000
0<
#35000
1<
#40000
0<
0I
#45000
1<
#50000
0<
#55000
1<
#60000
0i
b100 o
b0 !"
0<
1I
#65000
1<
#70000
0<
#75000
1<
#80000
0<
0I
#85000
1<
#90000
0<
#95000
1>
1<
#100000
b1 {
0<
1I
#105000
1<
#110000
0<
#115000
1<
#120000
0<
0I
#125000
1<
#130000
0<
#135000
1<
#140000
b10 {
0<
1I
#145000
b1100 ,"
1<
#150000
0<
#155000
b11 m
1@
b1100 =
b1100 ^
1<
#160000
0<
0I
#165000
1,
1s
1<
#170000
0<
#175000
b1001001001100100101001100000001 (
b1001001001100100101001100000001 c
b1001001001100100101001100000001 w
1&
1y
0,
0s
0@
1<
#180000
1i
b11 {
0<
1I
#185000
0&
0y
b11 ."
b100 -"
b1 Z
1/"
b10010010100010000100000011100100110010101100111011010010111001101110100011001010111001000100000001111010010000000110000011110000011010000111001001100110011001000110101001100110011000000110001 0"
b1001001001100100101001100000001 N
1<
#190000
0<
#195000
1g
1j
b1 k
1H
b11 F
b11 e
1C
b100 A
b100 `
1<
#200000
0<
0I
#205000
0g
0j
1+
1t
1%
1z
1<
#210000
0<
#215000
0j
0g
b11 %"
1)
1v
0%
0z
0+
0t
0H
0C
b100 ("
1<
#220000
b1 l
b1 U
r220 Q
b1 \
b1 V
0P
1K
0i
b1 }
1$
1|
b0 {
b11 ~
0<
1I
#225000
0)
0v
b100 ,"
1<
#230000
0<
#235000
b1 m
1@
b100 =
b100 ^
1<
#240000
0<
0I
#245000
1,
1s
1<
#250000
0<
#255000
b11 (
b11 c
b11 w
1&
1y
0,
0s
0@
1<
#260000
b11 !"
b1 {
0<
1I
#265000
0&
0y
b1 &"
b0 ."
b10 Z
b100001101010100010100100100110000100000011101110111001001101001011101000110010100101101011100100110010101100001011001000010000001110010011011110111010101101110011001000010110101110100011100100110100101110000 0"
b11 N
1<
#270000
0<
#275000
1g
1j
1H
b0 F
b0 e
1C
1<
#280000
0<
0I
#285000
0g
0j
1+
1t
1%
1z
1<
#290000
0<
#295000
0j
0g
b0 %"
1)
1v
0%
0z
0+
0t
0H
0C
b100 ("
1<
#300000
b10 {
b0 ~
0<
1I
#305000
0)
0v
b10100101101001010101101001011010 ."
b0 -"
1<
#310000
0<
#315000
1g
1j
b0 k
1H
b10100101101001010101101001011010 F
b10100101101001010101101001011010 e
1C
b0 A
b0 `
1<
#320000
0<
0I
#325000
0g
0j
1+
1t
1%
1z
1<
#330000
0<
#335000
0j
0g
b10100101101001010101101001011010 $"
1)
1v
0%
0z
0+
0t
0H
0C
b100 ("
1<
#340000
1h
b0 !"
b11 {
0<
1I
#345000
0)
0v
b0 &"
b1 ."
b100 -"
1<
#350000
0<
#355000
1g
1j
b1 k
1H
b1 F
b1 e
1C
b100 A
b100 `
1<
#360000
0<
0I
#365000
0g
0j
1+
1t
1%
1z
1<
#370000
0<
#375000
0j
0g
b1 %"
1)
1v
0%
0z
0+
0t
0H
0C
b100 ("
1<
#380000
0h
0$
0|
b0 {
b1 ~
0<
1I
#385000
0)
0v
1<
#390000
0<
#395000
1<
#400000
0<
0I
#405000
1<
#410000
0<
#415000
1<
#420000
b1 !"
b1 {
0<
1I
#425000
b1 &"
1<
#430000
0<
#435000
1<
#440000
0<
0I
#445000
1<
#450000
0<
#455000
1<
#460000
b10 {
0<
1I
#465000
1<
#470000
0<
#475000
1<
#480000
0<
0I
#485000
1<
#490000
0<
#495000
1<
#500000
1i
b11 {
0<
1I
#505000
1<
#510000
0<
#515000
1<
#520000
0<
0I
#525000
1<
#530000
0<
#535000
1<
#540000
b10 l
b10 V
b10 \
r540 Q
r320 T
0i
b10 }
1$
1|
b0 {
0<
1I
#545000
1<
#550000
0<
#555000
1<
#560000
0<
0I
#565000
1<
#570000
0<
#575000
1<
#580000
b1 {
0<
1I
#585000
1<
#590000
0<
#595000
1<
#600000
0<
0I
#605000
1<
#610000
0<
#615000
1<
#620000
b10 {
0<
1I
#625000
1<
#630000
0<
#635000
1<
#640000
0<
0I
#645000
1<
#650000
0<
#655000
1<
#660000
1h
b11 {
0<
1I
#665000
1<
#670000
0<
#675000
1<
#680000
0<
0I
#685000
1<
#690000
0<
#695000
1<
#700000
0h
0$
0|
b0 {
0<
1I
#705000
1<
#710000
0<
#715000
1<
#720000
0<
0I
#725000
1<
#730000
0<
#735000
1<
#740000
b1 {
0<
1I
#745000
1<
#750000
0<
#755000
1<
#760000
0<
0I
#765000
1<
#770000
0<
#775000
1<
#780000
b10 {
0<
1I
#785000
1<
#790000
0<
#795000
1<
#800000
0<
0I
#805000
1<
#810000
0<
#815000
1<
#820000
1i
b11 {
0<
1I
#825000
1<
#830000
0<
#835000
1<
#840000
0<
0I
#845000
1<
#850000
0<
#855000
1<
#860000
b11 l
r860 Q
b11 \
b11 V
0i
b11 }
1$
1|
b0 {
0<
1I
#865000
1<
#870000
0<
#875000
1<
#880000
0<
0I
#885000
1<
#890000
0<
#895000
1<
#900000
b1 {
0<
1I
#905000
1<
#910000
0<
#915000
1<
#920000
0<
0I
#925000
1<
#930000
0<
#935000
1<
#940000
b10 {
0<
1I
#945000
1<
#950000
0<
#955000
1<
#960000
0<
0I
#965000
1<
#970000
0<
#975000
1<
#980000
1h
b11 {
0<
1I
#985000
1<
#990000
0<
#995000
1<
#1000000
0<
0I
#1005000
1<
#1010000
0<
#1015000
1<
#1020000
0h
0$
0|
b0 {
0<
1I
#1025000
1<
#1030000
0<
#1035000
1<
#1040000
0<
0I
#1045000
1<
#1050000
0<
#1055000
1<
#1060000
b1 {
0<
1I
#1065000
1<
#1070000
0<
#1075000
1<
#1080000
0<
0I
#1085000
1<
#1090000
0<
#1095000
1<
#1100000
b10 {
0<
1I
#1105000
1<
#1110000
0<
#1115000
1<
#1120000
0<
0I
#1125000
1<
#1130000
0<
#1135000
1<
#1140000
1i
b11 {
0<
1I
#1145000
1<
#1150000
0<
#1155000
1<
#1160000
0<
0I
#1165000
1<
#1170000
0<
#1175000
1<
#1180000
b100 l
b100 V
b100 \
r1180 Q
0i
b100 }
1$
1|
b0 {
0<
1I
#1185000
1<
#1190000
0<
#1195000
1<
#1200000
0<
0I
#1205000
1<
#1210000
0<
#1215000
1<
#1220000
b1 {
0<
1I
#1225000
1<
#1230000
0<
#1235000
1<
#1240000
0<
0I
#1245000
1<
#1250000
0<
#1255000
1<
#1260000
b10 {
0<
1I
#1265000
1<
#1270000
0<
#1275000
1<
#1280000
0<
0I
#1285000
1<
#1290000
0<
#1295000
1<
#1300000
1h
b11 {
0<
1I
#1305000
1<
#1310000
0<
#1315000
1<
#1320000
0<
0I
#1325000
1<
#1330000
0<
#1335000
1<
#1340000
0h
0$
0|
b0 {
0<
1I
#1345000
1<
#1350000
0<
#1355000
1<
#1360000
0<
0I
#1365000
1<
#1370000
0<
#1375000
1<
#1380000
b1 {
0<
1I
#1385000
1<
#1390000
0<
#1395000
1<
#1400000
0<
0I
#1405000
1<
#1410000
0<
#1415000
1<
#1420000
b10 {
0<
1I
#1425000
1<
#1430000
0<
#1435000
1<
#1440000
0<
0I
#1445000
1<
#1450000
0<
#1455000
1<
#1460000
1i
b11 {
0<
1I
#1465000
1<
#1470000
0<
#1475000
1<
#1480000
0<
0I
#1485000
1<
#1490000
0<
#1495000
1<
#1500000
b101 l
r1500 Q
b101 \
b101 V
0i
b101 }
1$
1|
b0 {
0<
1I
#1505000
1<
#1510000
0<
#1515000
1<
#1520000
0<
0I
#1525000
1<
#1530000
0<
#1535000
1<
#1540000
b1 {
0<
1I
#1545000
1<
#1550000
0<
#1555000
1<
#1560000
0<
0I
#1565000
1<
#1570000
0<
#1575000
1<
#1580000
b10 {
0<
1I
#1585000
1<
#1590000
0<
#1595000
1<
#1600000
0<
0I
#1605000
1<
#1610000
0<
#1615000
1<
#1620000
1h
b11 {
0<
1I
#1625000
1<
#1630000
0<
#1635000
1<
#1640000
0<
0I
#1645000
1<
#1650000
0<
#1655000
1<
#1660000
0h
0$
0|
b0 {
0<
1I
#1665000
1<
#1670000
0<
#1675000
1<
#1680000
0<
0I
#1685000
1<
#1690000
0<
#1695000
1<
#1700000
b1 {
0<
1I
#1705000
1<
#1710000
0<
#1715000
1<
#1720000
0<
0I
#1725000
1<
#1730000
0<
#1735000
1<
#1740000
b10 {
0<
1I
#1745000
1<
#1750000
0<
#1755000
1<
#1760000
0<
0I
#1765000
1<
#1770000
0<
#1775000
1<
#1780000
1i
b11 {
0<
1I
#1785000
1<
#1790000
0<
#1795000
1<
#1800000
0<
0I
#1805000
1<
#1810000
0<
#1815000
1<
#1820000
b110 l
b110 V
b110 \
r1820 Q
0i
b110 }
1$
1|
b0 {
0<
1I
#1825000
1<
#1830000
0<
#1835000
1<
#1840000
0<
0I
#1845000
1<
#1850000
0<
#1855000
1<
#1860000
b1 {
0<
1I
#1865000
1<
#1870000
0<
#1875000
1<
#1880000
0<
0I
#1885000
1<
#1890000
0<
#1895000
1<
#1900000
b10 {
0<
1I
#1905000
1<
#1910000
0<
#1915000
1<
#1920000
0<
0I
#1925000
1<
#1930000
0<
#1935000
1<
#1940000
1h
b11 {
0<
1I
#1945000
1<
#1950000
0<
#1955000
1<
#1960000
0<
0I
#1965000
1<
#1970000
0<
#1975000
1<
#1980000
0h
0$
0|
b0 {
0<
1I
#1985000
1<
#1990000
0<
#1995000
1<
#2000000
0<
0I
#2005000
1<
#2010000
0<
#2015000
1<
#2020000
b1 {
0<
1I
#2025000
1<
#2030000
0<
#2035000
1<
#2040000
0<
0I
#2045000
1<
#2050000
0<
#2055000
1<
#2060000
b10 {
0<
1I
#2065000
1<
#2070000
0<
#2075000
1<
#2080000
0<
0I
#2085000
1<
#2090000
0<
#2095000
1<
#2100000
1i
b11 {
0<
1I
#2105000
1<
#2110000
0<
#2115000
1<
#2120000
0<
0I
#2125000
1<
#2130000
0<
#2135000
1<
#2140000
b111 l
r2140 Q
b111 \
b111 V
0i
b111 }
1$
1|
b0 {
0<
1I
#2145000
1<
#2150000
0<
#2155000
1<
#2160000
0<
0I
#2165000
1<
#2170000
0<
#2175000
1<
#2180000
b1 {
0<
1I
#2185000
1<
#2190000
0<
#2195000
1<
#2200000
0<
0I
#2205000
1<
#2210000
0<
#2215000
1<
#2220000
b10 {
0<
1I
#2225000
1<
#2230000
0<
#2235000
1<
#2240000
0<
0I
#2245000
1<
#2250000
0<
#2255000
1<
#2260000
1h
b11 {
0<
1I
#2265000
1<
#2270000
0<
#2275000
1<
#2280000
0<
0I
#2285000
1<
#2290000
0<
#2295000
1<
#2300000
0h
0$
0|
b0 {
0<
1I
#2305000
1<
#2310000
0<
#2315000
1<
#2320000
0<
0I
#2325000
1<
#2330000
0<
#2335000
1<
#2340000
b1 {
0<
1I
#2345000
1<
#2350000
0<
#2355000
1<
#2360000
0<
0I
#2365000
1<
#2370000
0<
#2375000
1<
#2380000
b10 {
0<
1I
#2385000
1<
#2390000
0<
#2395000
1<
#2400000
0<
0I
#2405000
1<
#2410000
0<
#2415000
1<
#2420000
1i
b11 {
0<
1I
#2425000
1<
#2430000
0<
#2435000
1<
#2440000
0<
0I
#2445000
1<
#2450000
0<
#2455000
1<
#2460000
b1000 l
b1000 V
b1000 \
r2460 Q
0i
b1000 }
1$
1|
b0 {
0<
1I
#2465000
1<
#2470000
0<
#2475000
1<
#2480000
0<
0I
#2485000
1<
#2490000
0<
#2495000
1<
#2500000
b1 {
0<
1I
#2505000
1<
#2510000
0<
#2515000
1<
#2520000
0<
0I
#2525000
1<
#2530000
0<
#2535000
1<
#2540000
b10 {
0<
1I
#2545000
1<
#2550000
0<
#2555000
1<
#2560000
0<
0I
#2565000
1<
#2570000
0<
#2575000
1<
#2580000
1h
b11 {
0<
1I
#2585000
1<
#2590000
0<
#2595000
1<
#2600000
0<
0I
#2605000
1<
#2610000
0<
#2615000
1<
#2620000
0h
0$
0|
b0 {
0<
1I
#2625000
1<
#2630000
0<
#2635000
1<
#2640000
0<
0I
#2645000
1<
#2650000
0<
#2655000
1<
#2660000
b1 {
0<
1I
#2665000
1<
#2670000
0<
#2675000
1<
#2680000
0<
0I
#2685000
1<
#2690000
0<
#2695000
1<
#2700000
b10 {
0<
1I
#2705000
1<
#2710000
0<
#2715000
1<
#2720000
0<
0I
#2725000
1<
#2730000
0<
#2735000
1<
#2740000
1i
b11 {
0<
1I
#2745000
1<
#2750000
0<
#2755000
1<
#2760000
0<
0I
#2765000
1<
#2770000
0<
#2775000
1<
#2780000
b1001 l
r2780 Q
b1001 \
b1001 V
0i
b1001 }
1$
1|
b0 {
0<
1I
#2785000
1<
#2790000
0<
#2795000
1<
#2800000
0<
0I
#2805000
1<
#2810000
0<
#2815000
1<
#2820000
b1 {
0<
1I
#2825000
1<
#2830000
0<
#2835000
1<
#2840000
0<
0I
#2845000
1<
#2850000
0<
#2855000
1<
#2860000
b10 {
0<
1I
#2865000
1<
#2870000
0<
#2875000
1<
#2880000
0<
0I
#2885000
1<
#2890000
0<
#2895000
1<
#2900000
1h
b11 {
0<
1I
#2905000
1<
#2910000
0<
#2915000
1<
#2920000
0<
0I
#2925000
1<
#2930000
0<
#2935000
1<
#2940000
0h
0$
0|
b0 {
0<
1I
#2945000
1<
#2950000
0<
#2955000
1<
#2960000
0<
0I
#2965000
1<
#2970000
0<
#2975000
1<
#2980000
b1 {
0<
1I
#2985000
1<
#2990000
0<
#2995000
1<
#3000000
0<
0I
#3005000
1<
#3010000
0<
#3015000
1<
#3020000
b10 {
0<
1I
#3025000
1<
#3030000
0<
#3035000
1<
#3040000
0<
0I
#3045000
1<
#3050000
0<
#3055000
1<
#3060000
1i
b11 {
0<
1I
#3065000
1<
#3070000
0<
#3075000
1<
#3080000
0<
0I
#3085000
1<
#3090000
0<
#3095000
1<
#3100000
b1010 l
b1010 V
b1010 \
r3100 Q
0i
b1010 }
1$
1|
b0 {
0<
1I
#3105000
1<
#3110000
0<
#3115000
1<
#3120000
0<
0I
#3125000
1<
#3130000
0<
#3135000
1<
#3140000
b1 {
0<
1I
#3145000
1<
#3150000
0<
#3155000
1<
#3160000
0<
0I
#3165000
1<
#3170000
0<
#3175000
1<
#3180000
b10 {
0<
1I
#3185000
1<
#3190000
0<
#3195000
1<
#3200000
0<
0I
#3205000
1<
#3210000
0<
#3215000
1<
#3220000
1h
b11 {
0<
1I
#3225000
1<
#3230000
0<
#3235000
1<
#3240000
0<
0I
#3245000
1<
#3250000
0<
#3255000
1<
#3260000
0h
0$
0|
b0 {
0<
1I
#3265000
1<
#3270000
0<
#3275000
1<
#3280000
0<
0I
#3285000
1<
#3290000
0<
#3295000
1<
#3300000
b1 {
0<
1I
#3305000
1<
#3310000
0<
#3315000
1<
#3320000
0<
0I
#3325000
1<
#3330000
0<
#3335000
1<
#3340000
b10 {
0<
1I
#3345000
1<
#3350000
0<
#3355000
1<
#3360000
0<
0I
#3365000
1<
#3370000
0<
#3375000
1<
#3380000
1i
b11 {
0<
1I
#3385000
1<
#3390000
0<
#3395000
1<
#3400000
0<
0I
#3405000
1<
#3410000
0<
#3415000
1<
#3420000
b1011 l
r3420 Q
b1011 \
b1011 V
0i
b1011 }
1$
1|
b0 {
0<
1I
#3425000
1<
#3430000
0<
#3435000
1<
#3440000
0<
0I
#3445000
1<
#3450000
0<
#3455000
1<
#3460000
b1 {
0<
1I
#3465000
1<
#3470000
0<
#3475000
1<
#3480000
0<
0I
#3485000
1<
#3490000
0<
#3495000
1<
#3500000
b10 {
0<
1I
#3505000
1<
#3510000
0<
#3515000
1<
#3520000
0<
0I
#3525000
1<
#3530000
0<
#3535000
1<
#3540000
1h
b11 {
0<
1I
#3545000
1<
#3550000
0<
#3555000
1<
#3560000
0<
0I
#3565000
1<
#3570000
0<
#3575000
1<
#3580000
0h
0$
0|
b0 {
0<
1I
#3585000
1<
#3590000
0<
#3595000
1<
#3600000
0<
0I
#3605000
1<
#3610000
0<
#3615000
1<
#3620000
b1 {
0<
1I
#3625000
1<
#3630000
0<
#3635000
1<
#3640000
0<
0I
#3645000
1<
#3650000
0<
#3655000
1<
#3660000
b10 {
0<
1I
#3665000
1<
#3670000
0<
#3675000
1<
#3680000
0<
0I
#3685000
1<
#3690000
0<
#3695000
1<
#3700000
1i
b11 {
0<
1I
#3705000
1<
#3710000
0<
#3715000
1<
#3720000
0<
0I
#3725000
1<
#3730000
0<
#3735000
1<
#3740000
b1100 l
b1100 V
b1100 \
r3740 Q
0i
b1100 }
1$
1|
b0 {
0<
1I
#3745000
1<
#3750000
0<
#3755000
1<
#3760000
0<
0I
#3765000
1<
#3770000
0<
#3775000
1<
#3780000
b1 {
0<
1I
#3785000
1<
#3790000
0<
#3795000
1<
#3800000
0<
0I
#3805000
1<
#3810000
0<
#3815000
1<
#3820000
b10 {
0<
1I
#3825000
1<
#3830000
0<
#3835000
1<
#3840000
0<
0I
#3845000
1<
#3850000
0<
#3855000
1<
#3860000
1h
b11 {
0<
1I
#3865000
1<
#3870000
0<
#3875000
1<
#3880000
0<
0I
#3885000
1<
#3890000
0<
#3895000
1<
#3900000
0h
0$
0|
b0 {
0<
1I
#3905000
1<
#3910000
0<
#3915000
1<
#3920000
0<
0I
#3925000
1<
#3930000
0<
#3935000
1<
#3940000
b1 {
0<
1I
#3945000
1<
#3950000
0<
#3955000
1<
#3960000
0<
0I
#3965000
1<
#3970000
0<
#3975000
1<
#3980000
b10 {
0<
1I
#3985000
1<
#3990000
0<
#3995000
1<
#4000000
0<
0I
#4005000
1<
#4010000
0<
#4015000
1<
#4020000
1i
b11 {
0<
1I
#4025000
1<
#4030000
0<
#4035000
1<
#4040000
0<
0I
#4045000
1<
#4050000
0<
#4055000
1<
#4060000
b1101 l
r4060 Q
b1101 \
b1101 V
0i
b1101 }
1$
1|
b0 {
0<
1I
#4065000
1<
#4070000
0<
#4075000
1<
#4080000
0<
0I
#4085000
1<
#4090000
0<
#4095000
1<
#4100000
b1 {
0<
1I
#4105000
1<
#4110000
0<
#4115000
1<
#4120000
0<
0I
#4125000
1<
#4130000
0<
#4135000
1<
#4140000
b10 {
0<
1I
#4145000
1<
#4150000
0<
#4155000
1<
#4160000
0<
0I
#4165000
1<
#4170000
0<
#4175000
1<
#4180000
1h
b11 {
0<
1I
#4185000
1<
#4190000
0<
#4195000
1<
#4200000
0<
0I
#4205000
1<
#4210000
0<
#4215000
1<
#4220000
0h
0$
0|
b0 {
0<
1I
#4225000
1<
#4230000
0<
#4235000
1<
#4240000
0<
0I
#4245000
1<
#4250000
0<
#4255000
1<
#4260000
b1 {
0<
1I
#4265000
1<
#4270000
0<
#4275000
1<
#4280000
0<
0I
#4285000
1<
#4290000
0<
#4295000
1<
#4300000
b10 {
0<
1I
#4305000
1<
#4310000
0<
#4315000
1<
#4320000
0<
0I
#4325000
1<
#4330000
0<
#4335000
1<
#4340000
1i
b11 {
0<
1I
#4345000
1<
#4350000
0<
#4355000
1<
#4360000
0<
0I
#4365000
1<
#4370000
0<
#4375000
1<
#4380000
b1110 l
b1110 V
b1110 \
r4380 Q
0i
b1110 }
1$
1|
b0 {
0<
1I
#4385000
1<
#4390000
0<
#4395000
1<
#4400000
0<
0I
#4405000
1<
#4410000
0<
#4415000
1<
#4420000
b1 {
0<
1I
#4425000
1<
#4430000
0<
#4435000
1<
#4440000
0<
0I
#4445000
1<
#4450000
0<
#4455000
1<
#4460000
b10 {
0<
1I
#4465000
1<
#4470000
0<
#4475000
1<
#4480000
0<
0I
#4485000
1<
#4490000
0<
#4495000
1<
#4500000
1h
b11 {
0<
1I
#4505000
1<
#4510000
0<
#4515000
1<
#4520000
0<
0I
#4525000
1<
#4530000
0<
#4535000
1<
#4540000
0h
0$
0|
b0 {
0<
1I
#4545000
1<
#4550000
0<
#4555000
1<
#4560000
0<
0I
#4565000
1<
#4570000
0<
#4575000
1<
#4580000
b1 {
0<
1I
#4585000
1<
#4590000
0<
#4595000
1<
#4600000
0<
0I
#4605000
1<
#4610000
0<
#4615000
1<
#4620000
b10 {
0<
1I
#4625000
1<
#4630000
0<
#4635000
1<
#4640000
0<
0I
#4645000
1<
#4650000
0<
#4655000
1<
#4660000
1i
b11 {
0<
1I
#4665000
1<
#4670000
0<
#4675000
1<
#4680000
0<
0I
#4685000
1<
#4690000
0<
#4695000
1<
#4700000
b1111 l
r4700 Q
b1111 \
b1111 V
0i
b1111 }
1$
1|
b0 {
0<
1I
#4705000
1<
#4710000
0<
#4715000
1<
#4720000
0<
0I
#4725000
1<
#4730000
0<
#4735000
1<
#4740000
b1 {
0<
1I
#4745000
1<
#4750000
0<
#4755000
1<
#4760000
0<
0I
#4765000
1<
#4770000
0<
#4775000
1<
#4780000
b10 {
0<
1I
#4785000
1<
#4790000
0<
#4795000
1<
#4800000
0<
0I
#4805000
1<
#4810000
0<
#4815000
1<
#4820000
1h
b11 {
0<
1I
#4825000
1<
#4830000
0<
#4835000
1<
#4840000
0<
0I
#4845000
1<
#4850000
0<
#4855000
1<
#4860000
0h
0$
0|
b0 {
0<
1I
#4865000
1<
#4870000
0<
#4875000
1<
#4880000
0<
0I
#4885000
1<
#4890000
0<
#4895000
1<
#4900000
b1 {
0<
1I
#4905000
1<
#4910000
0<
#4915000
1<
#4920000
0<
0I
#4925000
1<
#4930000
0<
#4935000
1<
#4940000
b10 {
0<
1I
#4945000
1<
#4950000
0<
#4955000
1<
#4960000
0<
0I
#4965000
1<
#4970000
0<
#4975000
1<
#4980000
1i
b11 {
0<
1I
#4985000
1<
#4990000
0<
#4995000
1<
#5000000
0<
0I
#5005000
1<
#5010000
0<
#5015000
1<
#5020000
b10000 l
b10000 V
b10000 \
r5020 Q
0i
b10000 }
1$
1|
b0 {
0<
1I
#5025000
1<
#5030000
0<
#5035000
1<
#5040000
0<
0I
#5045000
1<
#5050000
0<
#5055000
1<
#5060000
b1 {
0<
1I
#5065000
1<
#5070000
0<
#5075000
1<
#5080000
0<
0I
#5085000
1<
#5090000
0<
#5095000
1<
#5100000
b10 {
0<
1I
#5105000
1<
#5110000
0<
#5115000
1<
#5120000
0<
0I
#5125000
1<
#5130000
0<
#5135000
1<
#5140000
1h
b11 {
0<
1I
#5145000
1<
#5150000
0<
#5155000
1<
#5160000
0<
0I
#5165000
1<
#5170000
0<
#5175000
1<
#5180000
0h
0$
0|
b0 {
0<
1I
#5185000
1<
#5190000
0<
#5195000
1<
#5200000
0<
0I
#5205000
1<
#5210000
0<
#5215000
1<
#5220000
b1 {
0<
1I
#5225000
1<
#5230000
0<
#5235000
1<
